{
        "1":{
                "width":{
                        "gfloat":277.0
                }
        },
        "2":{
                "height":{
                        "gfloat":480.0
                }
        },
        "3":{
                "roller-type":{
                        "gint":0
                }
        },
        "4":{
                "roll-over":{
                        "gboolean":true
                }
        },
        "5":{
                "reactive":{
                        "gboolean":true
                }
        },
        "6":{
                "show-arrow":{
                        "gboolean":false
                }
        },
        "7":{
		 "cylinder-distort":{
                        "gboolean":true
                }
        },
        "8":{
                "show-flow-layout":{
                        "gboolean":true
                }
        },
        "9":{
                "item-type":{
                        "GType":"FramptonThumbnailItem"
                }
        }

}


