{
        "footer-image":{
                "gchararray":"sortbottom.png"
        }, 
	"arrow-up-markup":{
		"gchararray":"&#x25b5;"
	},
	"arrow-down-markup":{
		"gchararray":"&#x25bf;"
	},
	"footer-height":{
	 	"gfloat":86.0
        },
	"font":{
		"gchararray":"DejaVuSansCondensed 24px"
	},
	"line-color":{
		"gchararray":"#FFFFFF33"
	},
	"text-color":{
		"gchararray":"#98A9B2FF"
	},
	"width":{
                "gfloat":240.0
        },      
        "height":{
                "gfloat":64.0
        },
	"vertical-line-x":{
		"gfloat":64.0
	},
        "arrow-x":{
		"gfloat":190.0
        },
        "bottom-line-y":{
		"gfloat":63.0
        },
        "text-y":{
		"gfloat":19.0
        }

}
