{
        "footer-image":{
                "gchararray":"sortbottom.png"
        }, 
        "icon-path":{
                "gchararray":"IconBig_Music.png"
        }, 
	"arrow-up-markup":{
		"gchararray":"&#x25b5;"
	},
	"arrow-down-markup":{
		"gchararray":"&#x25bf;"
	},
	"footer-height":{
	 	"gfloat":86.0
        },
	"icon-width":{
		"gfloat":64.0
	},
	"icon-height":{
	 	"gfloat":64.0
        },
	"font":{
		"gchararray":"DejaVuSansCondensed 24px"
	},
	"line-color":{
		"gchararray":"#FFFFFF33"
	},
	"text-color":{
		"gchararray":"#98A9B2FF"
	},
	"right-x":{
		"gfloat":235.0
	},
	"text-y":{
		"gfloat":19.0
	},
	"mid-x":{
                "gfloat":74.0
        },      
	"mid-width":{
                "gfloat":145.0
        },      
        "right-width":{
                "gfloat":165.0
        },
	"vertical-line-x":{
		"gfloat":220.0
	},
	"horizontal-line-width":{
		"gfloat":344.0
	},
	"line-x":{
		"gfloat":64.0
        },      
        "arrow-x":{
		"gfloat":190.0
        },
        "bottom-line-y":{
		"gfloat":63.0
        }
}
